{
  "method": "GET",
  "endpoint": "/api/reports/",
  "description": "Get list of reports with pagination",
  "query_parameters": {
    "page": {
      "type": "integer",
      "default": 1,
      "description": "Page number for pagination",
      "minimum": 1
    },
    "page_size": {
      "type": "integer",
      "default": 10,
      "description": "Number of reports per page",
      "minimum": 1,
      "maximum": 100
    }
  },
  "response": {
    "reports": [
      {
        "id": "rpt-001",
        "name": "Q4 Revenue Analysis",
        "description": "A detailed breakdown of revenue by region and product line for the final quarter.",
        "source_type": "campaign",
        "export_format": "pdf",
        "scheduling": {
          "enabled": true,
          "frequency": "monthly"
        },
        "created_at": "2024-01-10T10:00:00Z"
      },
      {
        "id": "rpt-002",
        "name": "Customer Churn SQL Export",
        "description": "Raw data export of high-risk customers based on custom SQL query.",
        "source_type": "custom",
        "export_format": "csv",
        "scheduling": {
          "enabled": false,
          "frequency": null
        },
        "created_at": "2024-01-11T14:30:00Z"
      },
      {
        "id": "rpt-003",
        "name": "Weekly Active Users",
        "description": null,
        "source_type": "campaign",
        "export_format": "excel",
        "scheduling": {
          "enabled": true,
          "frequency": "weekly"
        },
        "created_at": "2024-01-12T09:15:00Z"
      }
    ],
    "pagination": {
      "total": 25,
      "page": 1,
      "page_size": 10,
      "total_pages": 3
    }
  }
}